# Can import and ECIS file

    Code
      ecis_import(raw = w16)
    Condition
      Warning:
      Expected 2 pieces. Additional pieces discarded in 2 rows [1, 2].
    Output
      # A tibble: 880 x 6
             Time Well  Frequency Unit   Value Instrument
            <dbl> <chr>     <dbl> <fct>  <dbl> <chr>     
       1 0.000688 A01        1000 R      1508. ECIS      
       2 0.000688 A01         125 R     22828. ECIS      
       3 0.000688 A01       16000 R      1006. ECIS      
       4 0.000688 A01        2000 R      1186. ECIS      
       5 0.000688 A01         250 R      6776. ECIS      
       6 0.000688 A01       32000 R       995. ECIS      
       7 0.000688 A01        4000 R      1076. ECIS      
       8 0.000688 A01         500 R      2556. ECIS      
       9 0.000688 A01          62 R     82275. ECIS      
      10 0.000688 A01       64000 R       996. ECIS      
      # i 870 more rows
…
---

    Code
      data
    Output
      # A tibble: 14,400 x 7
          Time Well  Frequency Unit  Value Instrument Experiment
         <dbl> <chr>     <dbl> <fct> <dbl> <chr>      <chr>     
       1     0 A01        1000 R      394. ECIS       TEST      
       2     0 A01       16000 R      223. ECIS       TEST      
       3     0 A01        2000 R      316. ECIS       TEST      
       4     0 A01         250 R      824. ECIS       TEST      
       5     0 A01       32000 R      212. ECIS       TEST      
       6     0 A01        4000 R      267. ECIS       TEST      
       7     0 A01         500 R      533. ECIS       TEST      
       8     0 A01       64000 R      205. ECIS       TEST      
       9     0 A01        8000 R      240. ECIS       TEST      
      10     0 B01        1000 R      388. ECIS       TEST      
      # i 14,390 more rows

# Can import cellZScope file

    Code
      cellzscope_import(raw, model, "test")
    Output
      # A tibble: 88,288 x 8
          Time Unit               Well  Value Experiment Frequency Instrument Sample  
         <dbl> <chr>              <chr> <dbl> <chr>          <dbl> <chr>      <chr>   
       1  0.03 CPE_A(sⁿ⁻¹·µF/cm²) A01    NA   test               0 cellZscope " 80,00~
       2  0.03 CPE_A(sⁿ⁻¹·µF/cm²) A02    46.8 test               0 cellZscope " 80,00~
       3  0.03 CPE_A(sⁿ⁻¹·µF/cm²) A04    42.9 test               0 cellZscope " 20,00~
       4  0.03 CPE_A(sⁿ⁻¹·µF/cm²) A05    NA   test               0 cellZscope " 20,00~
       5  0.03 CPE_A(sⁿ⁻¹·µF/cm²) B01    NA   test               0 cellZscope " 80,00~
       6  0.03 CPE_A(sⁿ⁻¹·µF/cm²) B02    NA   test               0 cellZscope " 80,00~
       7  0.03 CPE_A(sⁿ⁻¹·µF/cm²) B04    NA   test               0 cellZscope " 20,00~
       8  0.03 CPE_A(sⁿ⁻¹·µF/cm²) B05    NA   test               0 cellZscope " 20,00~
       9  1.3  CPE_A(sⁿ⁻¹·µF/cm²) A01    46.1 test               0 cellZscope " 80,00~
      10  1.3  CPE_A(sⁿ⁻¹·µF/cm²) A02    51.8 test               0 cellZscope " 80,00~
      # i 88,278 more rows

---

    Code
      cellzscope_import(raw, model)
    Output
      # A tibble: 88,288 x 8
          Time Unit               Well  Value Experiment   Frequency Instrument Sample
         <dbl> <chr>              <chr> <dbl> <chr>            <dbl> <chr>      <chr> 
       1  0.03 CPE_A(sⁿ⁻¹·µF/cm²) A01    NA   zscopemodel~         0 cellZscope " 80,~
       2  0.03 CPE_A(sⁿ⁻¹·µF/cm²) A02    46.8 zscopemodel~         0 cellZscope " 80,~
       3  0.03 CPE_A(sⁿ⁻¹·µF/cm²) A04    42.9 zscopemodel~         0 cellZscope " 20,~
       4  0.03 CPE_A(sⁿ⁻¹·µF/cm²) A05    NA   zscopemodel~         0 cellZscope " 20,~
       5  0.03 CPE_A(sⁿ⁻¹·µF/cm²) B01    NA   zscopemodel~         0 cellZscope " 80,~
       6  0.03 CPE_A(sⁿ⁻¹·µF/cm²) B02    NA   zscopemodel~         0 cellZscope " 80,~
       7  0.03 CPE_A(sⁿ⁻¹·µF/cm²) B04    NA   zscopemodel~         0 cellZscope " 20,~
       8  0.03 CPE_A(sⁿ⁻¹·µF/cm²) B05    NA   zscopemodel~         0 cellZscope " 20,~
       9  1.3  CPE_A(sⁿ⁻¹·µF/cm²) A01    46.1 zscopemodel~         0 cellZscope " 80,~
      10  1.3  CPE_A(sⁿ⁻¹·µF/cm²) A02    51.8 zscopemodel~         0 cellZscope " 80,~
      # i 88,278 more rows
…
