# xCELLigence imports OK

    Code
      xcell
    Output
      # A tibble: 3,168 x 8
         Frequency      Value Well   Time Unit  Experiment Instrument  Sample         
             <dbl>      <dbl> <chr> <dbl> <chr> <chr>      <chr>       <chr>          
       1     10000       51.4 A01       0 Z     TEST7      xCELLigence Water_Vehicle ~
       2     10000       51.6 A02       0 Z     TEST7      xCELLigence Water_Vehicle ~
       3     10000       49.4 A03       0 Z     TEST7      xCELLigence Water_Vehicle ~
       4     10000 -1000000   A04       0 Z     TEST7      xCELLigence <NA>           
       5     10000 -1000000   A05       0 Z     TEST7      xCELLigence <NA>           
       6     10000 -1000000   A06       0 Z     TEST7      xCELLigence <NA>           
       7     10000 -1000000   A07       0 Z     TEST7      xCELLigence <NA>           
       8     10000 -1000000   A08       0 Z     TEST7      xCELLigence <NA>           
       9     10000 -1000000   A09       0 Z     TEST7      xCELLigence <NA>           
      10     10000 -1000000   A10       0 Z     TEST7      xCELLigence <NA>           
      # i 3,158 more rows
…
# cellZScope imports OK

    Code
      czs
    Output
      # A tibble: 88,288 x 8
          Time Unit             Well  Value Experiment     Frequency Instrument Sample
         <dbl> <chr>            <chr> <dbl> <chr>              <dbl> <chr>      <chr> 
       1  0.03 CPE_A(sa?a>>AAA) A01    NA   zscopemodel.t~         0 cellZscope 80,00~
       2  0.03 CPE_A(sa?a>>AAA) A02    46.8 zscopemodel.t~         0 cellZscope 80,00~
       3  0.03 CPE_A(sa?a>>AAA) A04    42.9 zscopemodel.t~         0 cellZscope 20,00~
       4  0.03 CPE_A(sa?a>>AAA) A05    NA   zscopemodel.t~         0 cellZscope 20,00~
       5  0.03 CPE_A(sa?a>>AAA) B01    NA   zscopemodel.t~         0 cellZscope 80,00~
       6  0.03 CPE_A(sa?a>>AAA) B02    NA   zscopemodel.t~         0 cellZscope 80,00~
       7  0.03 CPE_A(sa?a>>AAA) B04    NA   zscopemodel.t~         0 cellZscope 20,00~
       8  0.03 CPE_A(sa?a>>AAA) B05    NA   zscopemodel.t~         0 cellZscope 20,00~
       9  1.3  CPE_A(sa?a>>AAA) A01    46.1 zscopemodel.t~         0 cellZscope 80,00~
      10  1.3  CPE_A(sa?a>>AAA) A02    51.8 zscopemodel.t~         0 cellZscope 80,00~
      # i 88,278 more rows
