…
---

    Code
      cc_data
    Output
      # A tibble: 81 x 11
      # Groups:   SampleID 1, Sample 1, Experiment 1 [6]
         `Well 1` `SampleID 1` `Sample 1`           `Experiment 1` `values 1` `Well 2`
         <chr>           <int> <fct>                <fct>          <list>     <chr>   
       1 A01                 1 35,000_cells + HCME~ 1 : Experimen~ <dbl [4]>  D01     
       2 A01                 1 35,000_cells + HCME~ 1 : Experimen~ <dbl [4]>  D02     
       3 A01                 1 35,000_cells + HCME~ 1 : Experimen~ <dbl [4]>  D03     
       4 A01                 1 35,000_cells + HCME~ 1 : Experimen~ <dbl [4]>  G01     
       5 A01                 1 35,000_cells + HCME~ 1 : Experimen~ <dbl [4]>  G02     
       6 A01                 1 35,000_cells + HCME~ 1 : Experimen~ <dbl [4]>  G03     
       7 A02                 1 35,000_cells + HCME~ 1 : Experimen~ <dbl [4]>  D01     
       8 A02                 1 35,000_cells + HCME~ 1 : Experimen~ <dbl [4]>  D02     
       9 A02                 1 35,000_cells + HCME~ 1 : Experimen~ <dbl [4]>  D03     
      10 A02                 1 35,000_cells + HCME~ 1 : Experimen~ <dbl [4]>  G01     
      # i 71 more rows
      # i 5 more variables: `SampleID 2` <int>, `Sample 2` <fct>,
      #   `Experiment 2` <fct>, `values 2` <list>, cc <dbl>
…
