…
- include_disc:

  Add an additional data point either side of a discrepancy. Defaults
  TRUE

## Value

An interpolated vascr dataset

## Examples

``` r
# Automatically re sample, mimicking the input data as closely as possible
vascr_resample_time(growth.df)
#> # A tibble: 146,370 × 12
#>    Unit  Well  Sample       Frequency Experiment cells line  Instrument SampleID
#>    <chr> <chr> <chr>            <dbl> <fct>      <chr> <chr> <chr>         <int>
#>  1 Alpha A01   35,000_cell…         0 1 : Exper… 35000 HCME… ECIS              1
#>  2 Alpha A01   35,000_cell…         0 1 : Exper… 35000 HCME… ECIS              1
#>  3 Alpha A01   35,000_cell…         0 1 : Exper… 35000 HCME… ECIS              1
#>  4 Alpha A01   35,000_cell…         0 1 : Exper… 35000 HCME… ECIS              1
#>  5 Alpha A01   35,000_cell…         0 1 : Exper… 35000 HCME… ECIS              1
#>  6 Alpha A01   35,000_cell…         0 1 : Exper… 35000 HCME… ECIS              1
#>  7 Alpha A01   35,000_cell…         0 1 : Exper… 35000 HCME… ECIS              1
#>  8 Alpha A01   35,000_cell…         0 1 : Exper… 35000 HCME… ECIS              1
#>  9 Alpha A01   35,000_cell…         0 1 : Exper… 35000 HCME… ECIS              1
#> 10 Alpha A01   35,000_cell…         0 1 : Exper… 35000 HCME… ECIS              1
#> # ℹ 146,360 more rows
#> # ℹ 3 more variables: Excluded <chr>, Value <dbl>, Time <dbl>

# Fully controlled resample with advanced options
vascr_resample_time(growth.df, t_start = 5, t_end = 20, rate = 5, force = c(1,2,3))
#> # A tibble: 24,990 × 12
#>    Unit  Well  Sample       Frequency Experiment cells line  Instrument SampleID
#>    <chr> <chr> <chr>            <dbl> <fct>      <chr> <chr> <chr>         <int>
#>  1 Alpha A01   35,000_cell…         0 1 : Exper… 35000 HCME… ECIS              1
#>  2 Alpha A01   35,000_cell…         0 1 : Exper… 35000 HCME… ECIS              1
#>  3 Alpha A01   35,000_cell…         0 1 : Exper… 35000 HCME… ECIS              1
#>  4 Alpha A01   35,000_cell…         0 1 : Exper… 35000 HCME… ECIS              1
#>  5 Alpha A01   35,000_cell…         0 1 : Exper… 35000 HCME… ECIS              1
#>  6 Alpha A01   35,000_cell…         0 1 : Exper… 35000 HCME… ECIS              1
#>  7 Alpha A01   35,000_cell…         0 1 : Exper… 35000 HCME… ECIS              1
#>  8 Alpha A02   35,000_cell…         0 1 : Exper… 35000 HCME… ECIS              1
#>  9 Alpha A02   35,000_cell…         0 1 : Exper… 35000 HCME… ECIS              1
#> 10 Alpha A02   35,000_cell…         0 1 : Exper… 35000 HCME… ECIS              1
#> # ℹ 24,980 more rows
#> # ℹ 3 more variables: Excluded <chr>, Value <dbl>, Time <dbl>
```
